* Generate PSF 
* Do NOT rebuild coordinates; NO minimization 
*

!!!!!!!!!!!!!!!!!!!!!
!! Global settings !!
!!!!!!!!!!!!!!!!!!!!!

! Set variables
! -------------
! In general only settings below need to be modified
! -------------
set toppar = toppar_phmd_c27.str ! top & par files

set segi   = SOLV            ! segname ID of lipids
set in     = wat_pwat        ! input  *.pdb
set out    = wat_b           ! output *.psf/crd/pdb

! Read topology and parameter files
! ---------------------------------
stream @toppar

!!!!!!!!!!!!!!!!!!!!!!!!!!!!!!!!
!! Read in starting structure !!
!!!!!!!!!!!!!!!!!!!!!!!!!!!!!!!!

open unit 1 read card name @{in}.pdb
read sequ pdb unit 1
gene @segi setup noang nodihe 
read coor pdb unit 1 
close unit 1 

!!!!!!!!!!!!!!!!!!!
!! Write outputs !!
!!!!!!!!!!!!!!!!!!!

! Write psf, crd and pdb
!------------------------
open unit 90 write card name @{out}.psf
write psf  card unit 90
* PSF for lipids
*

open unit 90 write card name @{out}.crd
write coor card unit 90
* CRD for lipids
*

open unit 90 write card name @{out}.pdb
write coor  pdb unit 90
* PDB for lipids
*

stop
